^D:\TEST PROJECT\TUTORIAL-FLUTTER\MY_APP\BUILD\WINDOWS\RUNNER\MY_APP.DIR\DEBUG\FLUTTER_WINDOW.OBJ|D:\TEST PROJECT\TUTORIAL-FLUTTER\MY_APP\BUILD\WINDOWS\RUNNER\MY_APP.DIR\DEBUG\GENERATED_PLUGIN_REGISTRANT.OBJ|D:\TEST PROJECT\TUTORIAL-FLUTTER\MY_APP\BUILD\WINDOWS\RUNNER\MY_APP.DIR\DEBUG\MAIN.OBJ|D:\TEST PROJECT\TUTORIAL-FLUTTER\MY_APP\BUILD\WINDOWS\RUNNER\MY_APP.DIR\DEBUG\RUNNER.RES|D:\TEST PROJECT\TUTORIAL-FLUTTER\MY_APP\BUILD\WINDOWS\RUNNER\MY_APP.DIR\DEBUG\UTILS.OBJ|D:\TEST PROJECT\TUTORIAL-FLUTTER\MY_APP\BUILD\WINDOWS\RUNNER\MY_APP.DIR\DEBUG\WIN32_WINDOW.OBJ
D:\TEST PROJECT\TUTORIAL-FLUTTER\MY_APP\BUILD\WINDOWS\FLUTTER\DEBUG\FLUTTER_WRAPPER_APP.LIB
D:\TEST PROJECT\TUTORIAL-FLUTTER\MY_APP\WINDOWS\FLUTTER\EPHEMERAL\FLUTTER_WINDOWS.DLL.LIB
C:\PROGRAM FILES (X86)\WINDOWS KITS\10\LIB\10.0.19041.0\UM\X64\KERNEL32.LIB
C:\PROGRAM FILES (X86)\WINDOWS KITS\10\LIB\10.0.19041.0\UM\X64\USER32.LIB
C:\PROGRAM FILES (X86)\WINDOWS KITS\10\LIB\10.0.19041.0\UM\X64\GDI32.LIB
C:\PROGRAM FILES (X86)\WINDOWS KITS\10\LIB\10.0.19041.0\UM\X64\WINSPOOL.LIB
C:\PROGRAM FILES (X86)\WINDOWS KITS\10\LIB\10.0.19041.0\UM\X64\SHELL32.LIB
C:\PROGRAM FILES (X86)\WINDOWS KITS\10\LIB\10.0.19041.0\UM\X64\OLE32.LIB
C:\PROGRAM FILES (X86)\WINDOWS KITS\10\LIB\10.0.19041.0\UM\X64\OLEAUT32.LIB
C:\PROGRAM FILES (X86)\WINDOWS KITS\10\LIB\10.0.19041.0\UM\X64\UUID.LIB
C:\PROGRAM FILES (X86)\WINDOWS KITS\10\LIB\10.0.19041.0\UM\X64\COMDLG32.LIB
C:\PROGRAM FILES (X86)\WINDOWS KITS\10\LIB\10.0.19041.0\UM\X64\ADVAPI32.LIB
D:\TEST PROJECT\TUTORIAL-FLUTTER\MY_APP\BUILD\WINDOWS\RUNNER\MY_APP.DIR\DEBUG\RUNNER.RES
D:\TEST PROJECT\TUTORIAL-FLUTTER\MY_APP\BUILD\WINDOWS\RUNNER\MY_APP.DIR\DEBUG\FLUTTER_WINDOW.OBJ
D:\TEST PROJECT\TUTORIAL-FLUTTER\MY_APP\BUILD\WINDOWS\RUNNER\MY_APP.DIR\DEBUG\MAIN.OBJ
D:\TEST PROJECT\TUTORIAL-FLUTTER\MY_APP\BUILD\WINDOWS\RUNNER\MY_APP.DIR\DEBUG\UTILS.OBJ
D:\TEST PROJECT\TUTORIAL-FLUTTER\MY_APP\BUILD\WINDOWS\RUNNER\MY_APP.DIR\DEBUG\WIN32_WINDOW.OBJ
D:\TEST PROJECT\TUTORIAL-FLUTTER\MY_APP\BUILD\WINDOWS\RUNNER\MY_APP.DIR\DEBUG\GENERATED_PLUGIN_REGISTRANT.OBJ
D:\TEST PROJECT\TUTORIAL-FLUTTER\MY_APP\BUILD\WINDOWS\RUNNER\MY_APP.DIR\DEBUG\MY_APP.ILK
C:\WINDOWS\SYSTEM32\TZRES.DLL
C:\WINDOWS\GLOBALIZATION\SORTING\SORTDEFAULT.NLS
D:\TEST PROJECT\TUTORIAL-FLUTTER\MY_APP\WINDOWS\RUNNER\RUNNER.EXE.MANIFEST
C:\PROGRAM FILES (X86)\MICROSOFT VISUAL STUDIO\2019\COMMUNITY\VC\TOOLS\MSVC\14.29.30133\LIB\X64\MSVCPRTD.LIB
C:\PROGRAM FILES (X86)\MICROSOFT VISUAL STUDIO\2019\COMMUNITY\VC\TOOLS\MSVC\14.29.30133\LIB\X64\MSVCRTD.LIB
C:\PROGRAM FILES (X86)\MICROSOFT VISUAL STUDIO\2019\COMMUNITY\VC\TOOLS\MSVC\14.29.30133\LIB\X64\OLDNAMES.LIB
C:\PROGRAM FILES (X86)\MICROSOFT VISUAL STUDIO\2019\COMMUNITY\VC\TOOLS\MSVC\14.29.30133\LIB\X64\VCRUNTIMED.LIB
C:\PROGRAM FILES (X86)\WINDOWS KITS\10\LIB\10.0.19041.0\UCRT\X64\UCRTD.LIB
C:\PROGRAM FILES (X86)\MICROSOFT VISUAL STUDIO\2019\COMMUNITY\VC\TOOLS\MSVC\14.29.30133\BIN\HOSTX64\X64\CVTRES.EXE
D:\TEST PROJECT\TUTORIAL-FLUTTER\MY_APP\BUILD\WINDOWS\RUNNER\MY_APP.DIR\DEBUG\VC142.PDB
